{
  "swagger": "2.0",
  "info": {
    "version": "1.0.0",
    "title": "Choice Rest API Gateway",
    "description": "Choice Rest API Gateway"
  },
  "host": "10.100.10.150:5000",
  "servers": "10.100.10.150:5000",
  "basePath": "",
  "schemes": [
    "http"
  ],
  "consumes": [
    "application/json"
  ],
  "produces": [
    "application/json",
    "text/html"
  ],
  "paths": {
    "/": {
      "get": {
        "description": "",
        "produces": [],
        "parameters": [],
        "responses": {
          "200": {
            "description": "OK"
          }
        }
      },
      "post": {
        "description": "",
        "produces": [],
        "parameters": [],
        "responses": {
          "200": {
            "description": "OK"
          }
        }
      }
    },
    "/zabbix/sql/{sql}": {
      "get": {
        "description": "Zabbix urilizing back end sql queries instead of Zabbix REST calls: <br>   &emsp;<b>full:</b> Zabbix SKU search results <br>   &emsp;<b>condenced:</b> Sku Condenced <br>   &emsp;<b>probManagement:</b> Top Problems from the last 30 days <br>   &emsp;<b>problems:</b> Problems in Zabbix <br>   &emsp;<b>problemsCount:</b> Count of problems grouped by severity <br>   ",
        "produces": [
          "application/json"
        ],
        "parameters": [
          {
            "name": "sql",
            "in": "path",
            "required": true,
            "type": "string"
          }
        ],
        "responses": {
          "200": {
            "description": "Zabbix urilizing back end sql queries instead of Zabbix REST calls",
            "schema": {
              "type": "object",
              "properties": {
                "anyOf": {
                  "type": "array",
                  "items": {
                    "$ref": "#/definitions/problemsCount"
                  }
                }
              },
              "xml": {
                "name": "main"
              }
            }
          }
        }
      }
    },
    "/zabbix/sqltable/{sql}": {
      "get": {
        "description": "Zabbix urilizing back end sql queries instead of Zabbix REST calls returning an HTML Table: <br>   &emsp;<b>full:</b> Zabbix SKU search results <br>   &emsp;<b>condenced:</b> Sku Condenced <br>   &emsp;<b>probManagement:</b> Top Problems from the last 30 days <br>   &emsp;<b>problems:</b> Problems in Zabbix <br>   &emsp;<b>problemsCount:</b> Count of problems grouped by severity <br>   ",
        "produces": [
          "text/html"
        ],
        "parameters": [
          {
            "name": "sql",
            "in": "path",
            "required": true,
            "type": "string"
          }
        ],
        "responses": {
          "200": {
            "description": "Zabbix urilizing back end sql queries instead of Zabbix REST calls returning an HTML Table",
            "schema": {
              "type": "object",
              "properties": {
                "oneOf": {
                  "type": "array",
                  "items": {
                    "$ref": "#/definitions/condencedTable"
                  }
                }
              },
              "xml": {
                "name": "main"
              }
            }
          }
        }
      }
    },
    "/automate/": {
      "get": {
        "description": "",
        "produces": [],
        "parameters": [],
        "responses": {
          "200": {
            "description": "OK"
          }
        }
      }
    },
    "/automate/sql/{sql}": {
      "get": {
        "description": "Connectwise Automate utilizing back end sql queries instead of Connectwise REST calls<br>  &emsp;<b>workstations:</b> List of Workstations and Servers <br>  &emsp;<b>patchRebootAudit:</b> Patch Reboot Alert <br>  &emsp;<b>patchAudit:</b> Patch Audit Report <br>  &emsp;<b>patchfails:</b> Patch Failed Report <br>  &emsp;<b>activeDirUsers:</b> AD user report <br>  &emsp;<b>spla:</b> Microsoft SPLA report <br>  &emsp;<b>badHealth:</b> Connectwise Bad Device Health Report <br>  ",
        "produces": [
          "application/json"
        ],
        "parameters": [
          {
            "name": "sql",
            "in": "path",
            "required": true,
            "type": "string"
          }
        ],
        "responses": {
          "200": {
            "description": "Zabbix urilizing back end sql queries instead of Zabbix REST calls returning an HTML Table",
            "schema": {
              "type": "object",
              "properties": {
                "oneOf": {
                  "type": "array",
                  "items": {
                    "$ref": "#/definitions/badHealth"
                  }
                }
              },
              "xml": {
                "name": "main"
              }
            }
          }
        }
      }
    },
    "/automate/sqltable/{sql}": {
      "get": {
        "description": "Connectwise Automate utilizing back end sql queries instead of Connectwise REST calls Deleiverd as a Table<br>  &emsp;<b>workstations:</b> List of Workstations and Servers <br>  &emsp;<b>patchRebootAudit:</b> Patch Reboot Alert <br>  &emsp;<b>patchAudit:</b> Patch Audit Report <br>  &emsp;<b>patchfails:</b> Patch Failed Report <br>  &emsp;<b>activeDirUsers:</b> AD user report <br>  &emsp;<b>spla:</b> Microsoft SPLA report <br>  &emsp;<b>badHealth:</b> Connectwise Bad Device Health Report <br>  ",
        "produces": [
          "application/json"
        ],
        "parameters": [
          {
            "name": "sql",
            "in": "path",
            "required": true,
            "type": "string"
          }
        ],
        "responses": {
          "200": {
            "description": "Zabbix urilizing back end sql queries instead of Zabbix REST calls returning an HTML Table",
            "schema": {
              "type": "object",
              "properties": {
                "oneOf": {
                  "type": "array",
                  "items": {
                    "$ref": "#/definitions/badHealth"
                  }
                }
              },
              "xml": {
                "name": "main"
              }
            }
          }
        }
      }
    },
    "/cwapi/queries/{sql}": {
      "get": {
        "description": "Connectwise urilizing back end sql queries instead of Connectwise REST calls<br>  &emsp;<b>cwHash:</b> Top Tickets for the past month <br>  &emsp;<b>cwSLA:</b> Tickets that have violated SLA <br>  &emsp;<b>cwSLACount:</b> Count of tickets that have violated SLA <br>  &emsp;<b>cwDailyBackup:</b> Daily Onsite Backup Checks <br>  &emsp;<b>cwDailyBackupOffsite:</b> Daily Offsite Backup Checks <br>  &emsp;<b>cwSku:</b> Connectwise Sku list <br>  &emsp;<b>cwTime:</b> <br>  ",
        "produces": [
          "application/json"
        ],
        "parameters": [
          {
            "name": "sql",
            "in": "path",
            "required": true,
            "type": "string"
          }
        ],
        "responses": {
          "200": {
            "description": "Zabbix urilizing back end sql queries instead of Zabbix REST calls returning an HTML Table",
            "schema": {
              "type": "object",
              "properties": {
                "oneOf": {
                  "type": "array",
                  "items": {
                    "$ref": "#/definitions/cwSku"
                  }
                }
              },
              "xml": {
                "name": "main"
              }
            }
          }
        }
      }
    },
    "/cwapi/queriesTable/{sql}": {
      "get": {
        "description": "Connectwise urilizing back end sql queries instead of Connectwise REST calls and detlivers an HTML table instead of Json Object<br>  &emsp;<b>cwHash:</b> Top Tickets for the past month <br>  &emsp;<b>cwSLA:</b> Tickets that have violated SLA <br>  &emsp;<b>cwSLACount:</b> Count of tickets that have violated SLA <br>  &emsp;<b>cwDailyBackup:</b> Daily Onsite Backup Checks <br>  &emsp;<b>cwDailyBackupOffsite:</b> Daily Offsite Backup Checks <br>  &emsp;<b>cwSku:</b> Connectwise Sku list <br>  &emsp;<b>cwTime:</b> <br>  ",
        "produces": [
          "text/html"
        ],
        "parameters": [
          {
            "name": "sql",
            "in": "path",
            "required": true,
            "type": "string"
          }
        ],
        "responses": {
          "200": {
            "description": "Zabbix urilizing back end sql queries instead of Zabbix REST calls returning an HTML Table",
            "schema": {
              "type": "object",
              "properties": {
                "oneOf": {
                  "type": "array",
                  "items": {
                    "$ref": "#/definitions/cwSku"
                  }
                }
              },
              "xml": {
                "name": "main"
              }
            }
          }
        }
      }
    },
    "/cwapi/queriesTableDates/{sql}/{month}/{year}": {
      "get": {
        "description": "",
        "produces": [],
        "parameters": [
          {
            "name": "sql",
            "in": "path",
            "required": true,
            "type": "string"
          },
          {
            "name": "month",
            "in": "path",
            "required": true,
            "type": "string"
          },
          {
            "name": "year",
            "in": "path",
            "required": true,
            "type": "string"
          }
        ],
        "responses": {
          "200": {
            "description": "OK"
          }
        }
      }
    },
    "/cwapi/ticket": {
      "post": {
        "description": "ConnectwisCreate Ticket Creation",
        "produces": [
          "application/json"
        ],
        "parameters": [
          {
            "name": "body",
            "in": "body",
            "schema": {
              "type": "object",
              "properties": {
                "summary": {
                  "example": "any"
                },
                "priority": {
                  "example": "any"
                },
                "Company": {
                  "example": "any"
                },
                "initialDescription": {
                  "example": "any"
                }
              }
            }
          }
        ],
        "responses": {
          "200": {
            "description": "Returns full details of the ticket",
            "schema": {
              "$ref": "#/definitions/newTicketPost"
            }
          }
        }
      }
    },
    "/cwapi/boardStatus/{id}": {
      "get": {
        "description": "",
        "produces": [],
        "parameters": [
          {
            "name": "id",
            "in": "path",
            "required": true,
            "type": "string"
          }
        ],
        "responses": {
          "200": {
            "description": "OK"
          }
        }
      }
    },
    "/cwapi/ticket/{?ticketnum}": {
      "get": {
        "description": "ConnectwisCreate Get Ticket by ticket number",
        "produces": [
          "application/json"
        ],
        "parameters": [
          {
            "name": "?ticketnum",
            "in": "path",
            "required": true,
            "type": "string"
          }
        ],
        "responses": {
          "200": {
            "description": "Returns full details of the ticket",
            "schema": {
              "$ref": "#/definitions/newTicketPost"
            }
          }
        }
      },
      "put": {
        "description": "ConnectwisCreate Ticket Update",
        "produces": [
          "application/json"
        ],
        "parameters": [
          {
            "name": "?ticketnum",
            "in": "path",
            "required": true,
            "type": "string"
          }
        ],
        "responses": {
          "200": {
            "description": "Returns full details of the ticket",
            "schema": {
              "$ref": "#/definitions/newTicketPost"
            }
          }
        }
      }
    },
    "/cwapi/ticketNotes/{ticketnum}": {
      "get": {
        "description": "Connectwise Get Ticket Notes",
        "produces": [
          "application/json"
        ],
        "parameters": [
          {
            "name": "ticketnum",
            "in": "path",
            "required": true,
            "type": "string"
          }
        ],
        "responses": {
          "200": {
            "description": "Returns full details of the ticket",
            "schema": {
              "$ref": "#/definitions/cwTicketNotes"
            }
          }
        }
      },
      "post": {
        "description": "Connectwise Update Ticket Notes",
        "produces": [
          "application/json"
        ],
        "parameters": [
          {
            "name": "ticketnum",
            "in": "path",
            "required": true,
            "type": "string"
          },
          {
            "name": "body",
            "in": "body",
            "schema": {
              "type": "object",
              "properties": {
                "note": {
                  "example": "any"
                }
              }
            }
          }
        ],
        "responses": {
          "200": {
            "description": "Returns full details of the ticket",
            "schema": {
              "$ref": "#/definitions/cwTicketNotes"
            }
          }
        }
      }
    },
    "/cwapi/tickets/{query}": {
      "get": {
        "description": "",
        "produces": [],
        "parameters": [
          {
            "name": "query",
            "in": "path",
            "required": true,
            "type": "string"
          }
        ],
        "responses": {
          "200": {
            "description": "OK"
          }
        }
      }
    },
    "/cwapi/ticketcount/{query}": {
      "get": {
        "description": "",
        "produces": [],
        "parameters": [
          {
            "name": "query",
            "in": "path",
            "required": true,
            "type": "string"
          }
        ],
        "responses": {
          "200": {
            "description": "OK"
          }
        }
      }
    },
    "/citrix/lic/{tenant}": {
      "get": {
        "description": "Citrix Cloud Tenant Lic Count<br>   &emsp;<b>singleTenantsUsage:</b> Singe Tenant Lookup<br>   &emsp;<b>multiTenantsUsage:</b> Multi Tenant Lookup<br>",
        "produces": [
          "application/json"
        ],
        "parameters": [
          {
            "name": "tenant",
            "in": "path",
            "required": true,
            "type": "string"
          }
        ],
        "responses": {
          "200": {
            "description": "Returns Licences for tenant",
            "schema": {
              "type": "object",
              "properties": {
                "customerId": {
                  "type": "string",
                  "example": "be4258lg1b38"
                },
                "orgId": {
                  "type": "string",
                  "example": "52279586"
                },
                "displayName": {
                  "type": "string",
                  "example": "ChoiceSolutions"
                },
                "editionName": {
                  "type": "string",
                  "example": "Virtual Apps and Desktops Service"
                },
                "totalCommitCount": {
                  "type": "number",
                  "example": 2
                },
                "totalUsageCount": {
                  "type": "number",
                  "example": 40
                },
                "totalOverageCount": {
                  "type": "number",
                  "example": 38
                },
                "totalUsagePercent": {
                  "type": "number",
                  "example": 2000
                }
              },
              "xml": {
                "name": "main"
              }
            }
          }
        }
      }
    },
    "/xdr/endpoints": {
      "get": {
        "description": "PaloAlto Cortex XDR Endpoints By Company",
        "produces": [
          "application/json"
        ],
        "parameters": [],
        "responses": {
          "200": {
            "description": "Returns All Choice Managed Endpoints",
            "schema": {
              "$ref": "#/definitions/endpoints"
            }
          }
        }
      }
    },
    "/xdr/endpoints/{Company}": {
      "get": {
        "description": "PaloAlto Cortex XDR Endpoints By Company",
        "produces": [
          "application/json"
        ],
        "parameters": [
          {
            "name": "Company",
            "in": "path",
            "required": true,
            "type": "string"
          }
        ],
        "responses": {
          "200": {
            "description": "Returns All Choice Managed Endpoints",
            "schema": {
              "$ref": "#/definitions/endpoints"
            }
          }
        }
      }
    },
    "/xdr/incidents": {
      "get": {
        "description": "PaloAlto Cortex XDR Incidents",
        "produces": [
          "application/json"
        ],
        "parameters": [],
        "responses": {
          "200": {
            "description": "Returns All Choice Managed Endpoints",
            "schema": {
              "$ref": "#/definitions/incidents"
            }
          }
        }
      }
    },
    "/xdr/incidentDetail": {
      "get": {
        "description": "",
        "produces": [],
        "parameters": [],
        "responses": {
          "200": {
            "description": "OK"
          }
        }
      }
    },
    "/xdr/alerts": {
      "get": {
        "description": "PaloAlto Cortex XDR Alerts",
        "produces": [
          "application/json"
        ],
        "parameters": [],
        "responses": {
          "200": {
            "description": "Returns All Choice Managed Alerts",
            "schema": {
              "$ref": "#/definitions/incidents"
            }
          }
        }
      }
    },
    "/xdr/cache/{Name}": {
      "get": {
        "description": "",
        "produces": [],
        "parameters": [
          {
            "name": "Name",
            "in": "path",
            "required": true,
            "type": "string"
          }
        ],
        "responses": {
          "200": {
            "description": "OK"
          }
        }
      }
    },
    "/xdr/auditlog": {
      "get": {
        "description": "PaloAlto Cortex XDR Alerts",
        "produces": [
          "application/json"
        ],
        "parameters": [],
        "responses": {
          "200": {
            "description": "Returns All Choice Managed Alerts",
            "schema": {
              "$ref": "#/definitions/incidents"
            }
          }
        }
      }
    },
    "/huntress/orgs": {
      "get": {
        "description": "Huntress Orgs",
        "produces": [
          "application/json"
        ],
        "parameters": [],
        "responses": {
          "200": {
            "description": "Returns All Choice Managed Orgs and their Endpoints, Agent Count and Incident Count",
            "schema": {
              "$ref": "#/definitions/huntorgs"
            }
          }
        }
      }
    },
    "/huntress/incidents": {
      "get": {
        "description": "Huntress Incidents",
        "produces": [
          "application/json"
        ],
        "parameters": [],
        "responses": {
          "200": {
            "description": "Returns All Huntress Incidents",
            "schema": {
              "$ref": "#/definitions/huntincidents"
            }
          }
        }
      }
    },
    "/perch/companies": {
      "get": {
        "description": "Perch Company List",
        "produces": [
          "application/json"
        ],
        "parameters": [],
        "responses": {
          "200": {
            "description": "OK"
          }
        }
      }
    }
  },
  "definitions": {
    "huntincidents": {
      "type": "object",
      "properties": {
        "id": {
          "type": "number",
          "example": 423423
        },
        "status": {
          "type": "string",
          "example": "sent"
        },
        "summary": {},
        "body": {
          "type": "string",
          "example": "Huntress detected the following Potentially Unwanted Program (PUP)..."
        },
        "updated_at": {
          "type": "string",
          "example": "2022-06-28T19:08:31Z"
        },
        "agent_id": {
          "type": "number",
          "example": 2432423
        },
        "status_updated_at": {
          "type": "string",
          "example": "2022-06-28T19:08:31Z"
        },
        "organization_id": {
          "type": "number",
          "example": 324324
        },
        "sent_at": {
          "type": "string",
          "example": "2022-06-28T19:08:31Z"
        },
        "account_id": {
          "type": "number",
          "example": 6948
        },
        "subject": {
          "type": "string",
          "example": "LOW - Incident on ptmw007678 (PTMW, Inc.)"
        },
        "remediations": {
          "type": "array",
          "items": {
            "type": "object",
            "properties": {
              "id": {
                "type": "number",
                "example": 432423
              },
              "type": {
                "type": "string",
                "example": "service"
              },
              "status": {
                "type": "string",
                "example": "unapproved"
              },
              "details": {
                "type": "object",
                "properties": {
                  "name": {
                    "type": "string",
                    "example": "SlimService"
                  }
                }
              },
              "completable_by_task_response": {
                "type": "boolean",
                "example": true
              },
              "completable_manually": {
                "type": "boolean",
                "example": false
              },
              "display_action": {
                "type": "string",
                "example": "Delete Service"
              },
              "approved_at": {},
              "approved_by": {},
              "completed_at": {}
            }
          }
        },
        "footholds": {
          "type": "string",
          "example": "Foothold 1 - https://choicesolutions.huntress.io/org/432423/autoruns/432432..."
        },
        "severity": {
          "type": "string",
          "example": "low"
        },
        "closed_at": {},
        "indicator_types": {
          "type": "array",
          "example": [
            "footholds"
          ],
          "items": {
            "type": "string"
          }
        },
        "indicator_counts": {
          "type": "object",
          "properties": {
            "footholds": {
              "type": "number",
              "example": 2
            },
            "monitored_files": {
              "type": "number",
              "example": 0
            },
            "process_detections": {
              "type": "number",
              "example": 0
            },
            "ransomware_canaries": {
              "type": "number",
              "example": 0
            },
            "antivirus_detections": {
              "type": "number",
              "example": 0
            }
          }
        }
      }
    },
    "huntorgs": {
      "type": "object",
      "properties": {
        "id": {
          "type": "number",
          "example": 98393
        },
        "name": {
          "type": "string",
          "example": "Test"
        },
        "created_at": {
          "type": "string",
          "example": "2021-07-30T22:17:06Z"
        },
        "updated_at": {
          "type": "string",
          "example": "2022-01-20T19:30:06Z"
        },
        "account_id": {
          "type": "number",
          "example": 6948
        },
        "key": {
          "type": "string",
          "example": "test"
        },
        "notify_emails": {
          "type": "array",
          "example": [
            "cwatson@choicesolutions.com"
          ],
          "items": {
            "type": "string"
          }
        },
        "incident_reports_count": {
          "type": "number",
          "example": 0
        },
        "agents_count": {
          "type": "number",
          "example": 0
        }
      }
    },
    "fullTable": {
      "type": "object",
      "properties": {
        "html": {
          "type": "string",
          "example": "<html><body><tr><td>Company_ID</td><td>qty</td><td>ServerNmae</td><td>clock</td><td>ItemName</td><td>sku</td><td>key_</td></tr></body><html>"
        }
      }
    },
    "condencedTable": {
      "type": "object",
      "properties": {
        "html": {
          "type": "string",
          "example": "<html><body><tr><td>Company_ID</td><td>CC - Tier 1  Total Storag</td><td>CC - Tier 1 Storage</td><td>CC - vCPU</td><td>CC - vMemory</td><td>CC - Tier 2 Storage</td><td>Unitrends Backup Appliances</td></tr></body><html>"
        }
      }
    },
    "condenced": {
      "type": "object",
      "properties": {
        "Company_ID": {
          "type": "string",
          "example": "CWMCustomer ID"
        },
        "CC - Tier 1  Total Storage": {
          "type": "number",
          "example": 4956.35
        },
        "CC - Tier 1 Storage": {
          "type": "number",
          "example": 1103.74
        },
        "CC - vCPU": {
          "type": "number",
          "example": 32
        },
        "CC - vMemory": {
          "type": "number",
          "example": 96
        },
        "CC - Tier 2 Storage": {
          "type": "number",
          "example": 1461.64
        },
        "MS - Windows Server": {
          "type": "number",
          "example": 3
        },
        "Unitrends Backup Appliances": {
          "type": "number",
          "example": 3
        },
        "MS - Hypervisor": {},
        "MS - Citrix Master HSD": {},
        "MS - Citrix Master VDI": {},
        "MS - Citrix Infra": {},
        "MS - Citrix Hybrid Infra": {},
        "MS - Citrix Cloud Infra": {}
      }
    },
    "endpoints": {
      "type": "object",
      "properties": {
        "endpoint_id": {
          "type": "string",
          "example": "da0cb518dbb7465caa2d74511ae288e1"
        },
        "endpoint_name": {
          "type": "string",
          "example": "DFWACECC01"
        },
        "endpoint_type": {
          "type": "string",
          "example": "AGENT_TYPE_SERVER"
        },
        "endpoint_status": {
          "type": "string",
          "example": "CONNECTED"
        },
        "os_type": {
          "type": "string",
          "example": "AGENT_OS_WINDOWS"
        },
        "os_version": {
          "type": "string",
          "example": "10.0.17763"
        },
        "ip": {
          "type": "array",
          "example": [
            "10.200.215.151"
          ],
          "items": {
            "type": "string"
          }
        },
        "users": {
          "type": "array",
          "example": [
            "ChoiceCloud.com\\eric.bubba"
          ],
          "items": {
            "type": "string"
          }
        },
        "domain": {
          "type": "string",
          "example": "ChoiceCloud.com"
        },
        "alias": {
          "type": "string",
          "example": ""
        },
        "first_seen": {
          "type": "number",
          "example": 1616420169627
        },
        "last_seen": {
          "type": "number",
          "example": 1646058101195
        },
        "content_version": {
          "type": "string",
          "example": "400-84384"
        },
        "installation_package": {
          "type": "string",
          "example": "Windowx64v506"
        },
        "active_directory": {},
        "install_date": {
          "type": "number",
          "example": 1616420169632
        },
        "endpoint_version": {
          "type": "string",
          "example": "7.2.3.19377"
        },
        "is_isolated": {
          "type": "string",
          "example": "AGENT_UNISOLATED"
        },
        "isolated_date": {},
        "group_name": {
          "type": "array",
          "example": [
            "ACEAuditingComplianceEduc"
          ],
          "items": {
            "type": "string"
          }
        },
        "operational_status": {
          "type": "string",
          "example": "PROTECTED"
        },
        "operational_status_description": {
          "type": "string",
          "example": "[]"
        },
        "scan_status": {
          "type": "string",
          "example": "SCAN_STATUS_NONE"
        },
        "content_release_timestamp": {
          "type": "number",
          "example": 1645746031000
        },
        "last_content_update_time": {
          "type": "number",
          "example": 1645749944905
        }
      }
    },
    "incidents": {
      "type": "object",
      "properties": {
        "incident_id": {
          "type": "string",
          "example": "32410"
        },
        "incident_name": {},
        "creation_time": {
          "type": "number",
          "example": 1645806098428
        },
        "modification_time": {
          "type": "number",
          "example": 1646074418323
        },
        "detection_time": {},
        "status": {
          "type": "string",
          "example": "new"
        },
        "severity": {
          "type": "string",
          "example": "medium"
        },
        "description": {
          "type": "string",
          "example": "24 'WildFire Malware' alerts prevented by XDR Agent on 2 hosts  involving 2 users"
        },
        "assigned_user_mail": {},
        "assigned_user_pretty_name": {},
        "alert_count": {
          "type": "number",
          "example": 24
        },
        "low_severity_alert_count": {
          "type": "number",
          "example": 0
        },
        "med_severity_alert_count": {
          "type": "number",
          "example": 24
        },
        "high_severity_alert_count": {
          "type": "number",
          "example": 0
        },
        "user_count": {
          "type": "number",
          "example": 2
        },
        "host_count": {
          "type": "number",
          "example": 2
        },
        "notes": {},
        "resolve_comment": {},
        "resolved_timestamp": {},
        "manual_severity": {},
        "manual_description": {},
        "xdr_url": {
          "type": "string",
          "example": "https://choicesolutions.xdr.us.paloaltonetworks.com/incident-view?caseId=32410"
        },
        "starred": {
          "type": "boolean",
          "example": false
        },
        "hosts": {
          "type": "array",
          "example": [
            "ms-n19p1:4d53bfd1ccd945d2bffe2ca8c9e67510",
            "quickbooks-2:d085167ffe63ec78d9c525dafc22b145"
          ],
          "items": {
            "type": "string"
          }
        },
        "users": {
          "type": "array",
          "example": [
            "mikew",
            "pete"
          ],
          "items": {
            "type": "string"
          }
        },
        "incident_sources": {
          "type": "array",
          "example": [
            "XDR Agent"
          ],
          "items": {
            "type": "string"
          }
        },
        "rule_based_score": {},
        "manual_score": {},
        "wildfire_hits": {
          "type": "number",
          "example": 2
        },
        "alerts_grouping_status": {
          "type": "string",
          "example": "Enabled"
        },
        "mitre_tactics_ids_and_names": {},
        "mitre_techniques_ids_and_names": {},
        "alert_categories": {
          "type": "array",
          "example": [
            "Malware"
          ],
          "items": {
            "type": "string"
          }
        }
      }
    },
    "alerts": {
      "type": "object",
      "properties": {
        "external_id": {
          "type": "string",
          "example": "945146aaa6c811ea8c912c44fd2d2694"
        },
        "severity": {
          "type": "string",
          "example": "high"
        },
        "matching_status": {
          "type": "string",
          "example": "MATCHED"
        },
        "end_match_attempt_ts": {},
        "local_insert_ts": {
          "type": "number",
          "example": 1591319166695
        },
        "bioc_indicator": {},
        "matching_service_rule_id": {},
        "attempt_counter": {
          "type": "number",
          "example": 0
        },
        "bioc_category_enum_key": {},
        "is_whitelisted": {
          "type": "boolean",
          "example": false
        },
        "starred": {
          "type": "boolean",
          "example": false
        },
        "deduplicate_tokens": {},
        "filter_rule_id": {},
        "mitre_technique_id_and_name": {},
        "mitre_tactic_id_and_name": {},
        "agent_version": {},
        "agent_device_domain": {
          "type": "string",
          "example": "ccare.local"
        },
        "agent_fqdn": {},
        "agent_os_type": {
          "type": "string",
          "example": "Windows"
        },
        "agent_os_sub_type": {
          "type": "string",
          "example": "6.1.7601"
        },
        "agent_data_collection_status": {},
        "mac": {},
        "events": {
          "type": "array",
          "items": {
            "type": "object",
            "properties": {
              "agent_install_type": {
                "type": "string",
                "example": "STANDARD"
              },
              "agent_host_boot_time": {},
              "event_sub_type": {},
              "module_id": {},
              "association_strength": {},
              "dst_association_strength": {},
              "story_id": {},
              "event_id": {},
              "event_type": {
                "type": "string",
                "example": "File Event"
              },
              "event_timestamp": {
                "type": "number",
                "example": 1591319100024
              },
              "actor_process_instance_id": {},
              "actor_process_image_path": {},
              "actor_process_image_name": {},
              "actor_process_command_line": {},
              "actor_process_signature_status": {
                "type": "string",
                "example": "N/A"
              },
              "actor_process_signature_vendor": {
                "type": "string",
                "example": "N/A"
              },
              "actor_process_image_sha256": {},
              "actor_process_image_md5": {},
              "actor_process_causality_id": {},
              "actor_causality_id": {},
              "actor_process_os_pid": {},
              "actor_thread_thread_id": {},
              "causality_actor_process_image_name": {},
              "causality_actor_process_command_line": {},
              "causality_actor_process_image_path": {},
              "causality_actor_process_signature_vendor": {
                "type": "string",
                "example": "N/A"
              },
              "causality_actor_process_signature_status": {
                "type": "string",
                "example": "N/A"
              },
              "causality_actor_causality_id": {},
              "causality_actor_process_execution_time": {},
              "causality_actor_process_image_md5": {},
              "causality_actor_process_image_sha256": {},
              "action_file_path": {
                "type": "string",
                "example": "\\\\?\\C:\\WINPCACE\\Ansi837h.exe"
              },
              "action_file_name": {
                "type": "string",
                "example": "Ansi837h.exe"
              },
              "action_file_md5": {},
              "action_file_sha256": {
                "type": "string",
                "example": "bdbc2d8c529fd30ab091f4740389ec45bd0d18b77234ef1a2f09f2e6062ad7d3"
              },
              "action_file_macro_sha256": {},
              "action_registry_data": {},
              "action_registry_key_name": {},
              "action_registry_value_name": {},
              "action_registry_full_key": {},
              "action_local_ip": {},
              "action_local_port": {},
              "action_remote_ip": {},
              "action_remote_port": {},
              "action_external_hostname": {},
              "action_country": {
                "type": "string",
                "example": "UNKNOWN"
              },
              "action_process_instance_id": {},
              "action_process_causality_id": {},
              "action_process_image_name": {},
              "action_process_image_sha256": {},
              "action_process_image_command_line": {},
              "action_process_signature_status": {
                "type": "string",
                "example": "N/A"
              },
              "action_process_signature_vendor": {
                "type": "string",
                "example": "N/A"
              },
              "os_actor_effective_username": {},
              "os_actor_process_instance_id": {},
              "os_actor_process_image_path": {},
              "os_actor_process_image_name": {},
              "os_actor_process_command_line": {},
              "os_actor_process_signature_status": {
                "type": "string",
                "example": "N/A"
              },
              "os_actor_process_signature_vendor": {
                "type": "string",
                "example": "N/A"
              },
              "os_actor_process_image_sha256": {},
              "os_actor_process_causality_id": {},
              "os_actor_causality_id": {},
              "os_actor_process_os_pid": {},
              "os_actor_thread_thread_id": {},
              "fw_app_id": {},
              "fw_interface_from": {},
              "fw_interface_to": {},
              "fw_rule": {},
              "fw_rule_id": {},
              "fw_device_name": {},
              "fw_serial_number": {},
              "fw_url_domain": {},
              "fw_email_subject": {},
              "fw_email_sender": {},
              "fw_email_recipient": {},
              "fw_app_subcategory": {},
              "fw_app_category": {},
              "fw_app_technology": {},
              "fw_vsys": {},
              "fw_xff": {},
              "fw_misc": {},
              "fw_is_phishing": {
                "type": "string",
                "example": "N/A"
              },
              "dst_agent_id": {},
              "dst_causality_actor_process_execution_time": {},
              "dns_query_name": {},
              "dst_action_external_hostname": {},
              "dst_action_country": {},
              "dst_action_external_port": {},
              "contains_featured_host": {},
              "contains_featured_user": {},
              "contains_featured_ip": {},
              "image_name": {},
              "container_id": {},
              "cluster_name": {},
              "referenced_resource": {},
              "operation_name": {},
              "identity_sub_type": {},
              "identity_type": {},
              "project": {},
              "cloud_provider": {},
              "resource_type": {},
              "resource_sub_type": {},
              "user_agent": {},
              "user_name": {
                "type": "string",
                "example": "N/A"
              }
            }
          }
        },
        "alert_id": {
          "type": "string",
          "example": "34671"
        },
        "detection_timestamp": {
          "type": "number",
          "example": 1591319100024
        },
        "name": {
          "type": "string",
          "example": "WildFire Malware"
        },
        "category": {
          "type": "string",
          "example": "Malware"
        },
        "endpoint_id": {
          "type": "string",
          "example": "4d9e1846b04fdd33f6fc00d77e7eecbe"
        },
        "description": {
          "type": "string",
          "example": "Suspicious executable detected"
        },
        "host_ip": {
          "type": "array",
          "example": [
            "10.27.0.177"
          ],
          "items": {
            "type": "string"
          }
        },
        "host_name": {
          "type": "string",
          "example": "CRCorpBilling2"
        },
        "mac_addresses": {},
        "source": {
          "type": "string",
          "example": "XDR Agent"
        },
        "action": {
          "type": "string",
          "example": "POST_DETECTED"
        },
        "action_pretty": {
          "type": "string",
          "example": "Detected (Post Detected)"
        }
      }
    },
    "full": {
      "type": "object",
      "properties": {
        "Company_ID": {
          "type": "string",
          "example": "CWMCustomer ID"
        },
        "qty": {
          "type": "number",
          "example": 460
        },
        "ServerName": {
          "type": "string",
          "example": "Server_Name"
        },
        "clock": {
          "type": "string",
          "example": "2022-01-01T05:00:00.000Z"
        },
        "ItemName": {
          "type": "string",
          "example": "Item"
        },
        "sku": {
          "type": "string",
          "example": "Item Sku"
        },
        "key_": {
          "type": "string",
          "example": "Zabbix Key"
        }
      }
    },
    "problemManagment": {
      "type": "object",
      "properties": {
        "triggerid": {
          "type": "number",
          "example": 117325
        },
        "eventid": {
          "type": "number",
          "example": 111520143
        },
        "Problem": {
          "type": "string",
          "example": "C:: Disk space is critically low (used > 90%)"
        },
        "HostName": {
          "type": "string",
          "example": "T4L-INTRA01"
        },
        "count": {
          "type": "number",
          "example": 28
        }
      }
    },
    "problems": {
      "type": "object",
      "properties": {
        "date_time": {
          "type": "string",
          "example": "2022-01-28T16:06:10.000Z"
        },
        "epriority": {
          "type": "number",
          "example": 5
        },
        "priority": {
          "type": "number",
          "example": 5
        },
        "status": {
          "type": "number",
          "example": 0
        },
        "eventid": {
          "type": "number",
          "example": 111691705
        },
        "triggerid": {
          "type": "number",
          "example": 163452
        },
        "host_name": {
          "type": "string",
          "example": "SOL-CTXSHD20"
        },
        "hostid": {
          "type": "number",
          "example": 12037
        },
        "itemid": {
          "type": "number",
          "example": 338770
        },
        "item_name": {
          "type": "string",
          "example": "Zabbix agent availability"
        },
        "problem_name": {
          "type": "string",
          "example": "Zabbix agent is not available (for 5m)"
        },
        "acknowledged": {
          "type": "number",
          "example": 0
        }
      }
    },
    "problemsCount": {
      "type": "object",
      "properties": {
        "priority": {
          "type": "number",
          "example": 5
        },
        "PName": {
          "type": "string",
          "example": "Disaster"
        },
        "count": {
          "type": "number",
          "example": 7
        }
      }
    },
    "cwHash": {
      "type": "object",
      "properties": {
        "summary": {
          "type": "string",
          "example": "Zabbix - High Alert on Trinity - TB-DR-Core1"
        },
        "hash": {
          "type": "number",
          "example": 244
        },
        "Last Occur": {
          "type": "string",
          "example": "2022-01-27T23:43:23.090Z"
        }
      }
    },
    "cwSLA": {
      "type": "object",
      "properties": {
        "Ticket Num": {
          "type": "number",
          "example": 1259110
        },
        "Resolve By": {
          "type": "string",
          "example": "2021-10-21T09:22:51.243Z"
        },
        "Hours Left": {
          "type": "number",
          "example": -2383
        },
        "Company": {
          "type": "string",
          "example": "Choice Cloud"
        },
        "Summary Description": {
          "type": "string",
          "example": "Alert A160104: DFW-NTNX-CLUSTER-01: Warning: File Server internal network is not on the same subnet "
        },
        "Service Board": {
          "type": "string",
          "example": "Virtualization and Storage"
        },
        "Status": {
          "type": "string",
          "example": "In Progress"
        },
        "Ticket Owner First Name": {
          "type": "string",
          "example": "Darrell"
        },
        "Ticket Owner Last Name": {
          "type": "string",
          "example": "Doty"
        }
      }
    },
    "cwSLACount": {
      "type": "object",
      "properties": {
        "Count(Ticket Num)": {
          "type": "number",
          "example": 88
        }
      }
    },
    "cwDailyBackup": {
      "type": "object",
      "properties": {
        "id": {
          "type": "number",
          "example": 1289048
        },
        "Date_Entered": {
          "type": "string",
          "example": "2022-01-27T01:05:39.047Z"
        },
        "Company_Name": {
          "type": "string",
          "example": "A.J. Manufacturing Company, Inc."
        },
        "Summary": {
          "type": "string",
          "example": "Daily Backup Check - DFWAJMUEB01"
        },
        "Status_Description": {
          "type": "string",
          "example": "Closed"
        },
        "Backup": {
          "type": "string",
          "example": "Backup Success"
        }
      }
    },
    "cwDailyBackupOffsite": {
      "type": "object",
      "properties": {
        "id": {
          "type": "number",
          "example": 1289028
        },
        "Date_Entered": {
          "type": "string",
          "example": "2022-01-27T01:03:40.390Z"
        },
        "Company_Name": {
          "type": "string",
          "example": "Choice Cloud"
        },
        "Summary": {
          "type": "string",
          "example": "Offsite Daily Backup Check - ATLCCUEB02"
        },
        "Status_Description": {
          "type": "string",
          "example": "Backup Remediation"
        },
        "Backup": {
          "type": "string",
          "example": "Backup In Progress"
        }
      }
    },
    "cwSku": {
      "type": "object",
      "properties": {
        "Company_ID": {
          "type": "string",
          "example": "ACEAuditingComplianceEduc"
        },
        "Company_Name": {
          "type": "string",
          "example": "ACE - Auditing, Compliance, & Education"
        },
        "Company_RecID": {
          "type": "number",
          "example": 17677
        },
        "AGR_Name": {
          "type": "string",
          "example": "Managed Services - Hosted Cloud Environment"
        },
        "SKU": {
          "type": "string",
          "example": "MS - Citrix Cloud Infra"
        },
        "Description": {
          "type": "string",
          "example": "MS - Citrix Cloud Iinfrastructure"
        },
        "CustomerDescription": {
          "type": "string",
          "example": "MS - Citrix Cloud Infrastructure\n"
        },
        "AGD_Desc": {
          "type": "string",
          "example": "MS - Citrix Cloud Infrastructure\n"
        },
        "AGR_Date_End": {
          "type": "string",
          "example": "2022-11-30T00:00:00.000Z"
        },
        "AGD_Date": {
          "type": "string",
          "example": "2018-11-01T00:00:00.000Z"
        },
        "AGD_Qty": {
          "type": "number",
          "example": 1
        },
        "AGD_Cancel": {},
        "AGD_Cost": {
          "type": "number",
          "example": 640
        },
        "Extended_Cost_Amount": {
          "type": "array",
          "example": [
            640,
            640
          ],
          "items": {
            "type": "number"
          }
        },
        "Date_Entered_UTC": {
          "type": "string",
          "example": "2018-10-31T16:15:33.223Z"
        },
        "Last_Update": {
          "type": "string",
          "example": "2021-11-30T09:17:28.513Z"
        }
      }
    },
    "newTicketPost": {
      "type": "object",
      "properties": {
        "id": {
          "type": "number",
          "example": 1290116
        },
        "summary": {
          "type": "string",
          "example": "This is a test"
        },
        "recordType": {
          "type": "string",
          "example": "ServiceTicket"
        },
        "board": {
          "type": "object",
          "properties": {
            "id": {
              "type": "number",
              "example": 44
            },
            "name": {
              "type": "string",
              "example": "Automation"
            },
            "_info": {
              "type": "object",
              "properties": {
                "board_href": {
                  "type": "string",
                  "example": "https://portal.choicecloud.com/v4_6_release/apis/3.0/service/boards/44"
                }
              }
            }
          }
        },
        "status": {
          "type": "object",
          "properties": {
            "id": {
              "type": "number",
              "example": 847
            },
            "name": {
              "type": "string",
              "example": "Unassigned"
            },
            "_info": {
              "type": "object",
              "properties": {
                "status_href": {
                  "type": "string",
                  "example": "https://portal.choicecloud.com/v4_6_release/apis/3.0/service/boards/44/statuses/847"
                }
              }
            }
          }
        },
        "company": {
          "type": "object",
          "properties": {
            "id": {
              "type": "number",
              "example": 16004
            },
            "identifier": {
              "type": "string",
              "example": "ChoiceCloud"
            },
            "name": {
              "type": "string",
              "example": "Choice Cloud"
            },
            "_info": {
              "type": "object",
              "properties": {
                "company_href": {
                  "type": "string",
                  "example": "https://portal.choicecloud.com/v4_6_release/apis/3.0/company/companies/16004"
                },
                "mobileGuid": {
                  "type": "string",
                  "example": "bf0d1ba9-8b3f-45cd-950d-54e51b4e8a56"
                }
              }
            }
          }
        },
        "site": {
          "type": "object",
          "properties": {
            "id": {
              "type": "number",
              "example": 20713
            },
            "name": {
              "type": "string",
              "example": "Main"
            },
            "_info": {
              "type": "object",
              "properties": {
                "site_href": {
                  "type": "string",
                  "example": "https://portal.choicecloud.com/v4_6_release/apis/3.0/company/companies/16004/sites/20713"
                },
                "mobileGuid": {
                  "type": "string",
                  "example": "b3205e2b-a78a-4d15-85e3-ff543d7d6044"
                }
              }
            }
          }
        },
        "siteName": {
          "type": "string",
          "example": "Main"
        },
        "addressLine1": {
          "type": "string",
          "example": "7015 College Blvd."
        },
        "addressLine2": {
          "type": "string",
          "example": "Suite 300"
        },
        "city": {
          "type": "string",
          "example": "Overland Park"
        },
        "stateIdentifier": {
          "type": "string",
          "example": "KS"
        },
        "zip": {
          "type": "string",
          "example": "66211"
        },
        "country": {
          "type": "object",
          "properties": {
            "id": {
              "type": "number",
              "example": 1
            },
            "name": {
              "type": "string",
              "example": "United States"
            },
            "_info": {
              "type": "object",
              "properties": {
                "country_href": {
                  "type": "string",
                  "example": "https://portal.choicecloud.com/v4_6_release/apis/3.0/company/countries/1"
                }
              }
            }
          }
        },
        "contact": {
          "type": "object",
          "properties": {
            "id": {
              "type": "number",
              "example": 49194
            },
            "name": {
              "type": "string",
              "example": "Managed  Security"
            },
            "_info": {
              "type": "object",
              "properties": {
                "mobileGuid": {
                  "type": "string",
                  "example": "d23eb753-68f9-4001-a3d5-74dfba9cf8a3"
                },
                "contact_href": {
                  "type": "string",
                  "example": "https://portal.choicecloud.com/v4_6_release/apis/3.0/company/contacts/49194"
                }
              }
            }
          }
        },
        "contactName": {
          "type": "string",
          "example": "Managed  Security"
        },
        "contactEmailAddress": {
          "type": "string",
          "example": "alienvault@choicesolutions.com"
        },
        "team": {
          "type": "object",
          "properties": {
            "id": {
              "type": "number",
              "example": 51
            },
            "name": {
              "type": "string",
              "example": "MS - Automation"
            },
            "_info": {
              "type": "object",
              "properties": {
                "team_href": {
                  "type": "string",
                  "example": "https://portal.choicecloud.com/v4_6_release/apis/3.0/service/boards/44/teams/51"
                }
              }
            }
          }
        },
        "priority": {
          "type": "object",
          "properties": {
            "id": {
              "type": "number",
              "example": 10
            },
            "name": {
              "type": "string",
              "example": "MS 4 - Low"
            },
            "sort": {
              "type": "number",
              "example": 13
            },
            "_info": {
              "type": "object",
              "properties": {
                "priority_href": {
                  "type": "string",
                  "example": "https://portal.choicecloud.com/v4_6_release/apis/3.0/service/priorities/10"
                },
                "image_href": {
                  "type": "string",
                  "example": "https://portal.choicecloud.com/v4_6_release/apis/3.0/service/priorities/10/image?lm=2015-11-17T15:14:51Z"
                }
              }
            }
          }
        },
        "serviceLocation": {
          "type": "object",
          "properties": {
            "id": {
              "type": "number",
              "example": 6
            },
            "name": {
              "type": "string",
              "example": "Remote"
            },
            "_info": {
              "type": "object",
              "properties": {
                "location_href": {
                  "type": "string",
                  "example": "https://portal.choicecloud.com/v4_6_release/apis/3.0/service/locations/6"
                }
              }
            }
          }
        },
        "source": {
          "type": "object",
          "properties": {
            "id": {
              "type": "number",
              "example": 2
            },
            "name": {
              "type": "string",
              "example": "Customer Phone Call"
            },
            "_info": {
              "type": "object",
              "properties": {
                "source_href": {
                  "type": "string",
                  "example": "https://portal.choicecloud.com/v4_6_release/apis/3.0/service/sources/2"
                }
              }
            }
          }
        },
        "agreement": {
          "type": "object",
          "properties": {
            "id": {
              "type": "number",
              "example": 1348
            },
            "name": {
              "type": "string",
              "example": "Managed Services"
            },
            "_info": {
              "type": "object",
              "properties": {
                "agreement_href": {
                  "type": "string",
                  "example": "https://portal.choicecloud.com/v4_6_release/apis/3.0/finance/agreements/1348"
                }
              }
            }
          }
        },
        "severity": {
          "type": "string",
          "example": "Medium"
        },
        "impact": {
          "type": "string",
          "example": "Medium"
        },
        "allowAllClientsPortalView": {
          "type": "boolean",
          "example": false
        },
        "customerUpdatedFlag": {
          "type": "boolean",
          "example": false
        },
        "automaticEmailContactFlag": {
          "type": "boolean",
          "example": false
        },
        "automaticEmailResourceFlag": {
          "type": "boolean",
          "example": false
        },
        "automaticEmailCcFlag": {
          "type": "boolean",
          "example": false
        },
        "closedFlag": {
          "type": "boolean",
          "example": false
        },
        "dateEntered": {
          "type": "string",
          "example": "2022-01-31T14:45:52Z"
        },
        "enteredBy": {
          "type": "string",
          "example": "labtech"
        },
        "approved": {
          "type": "boolean",
          "example": true
        },
        "estimatedExpenseCost": {
          "type": "number",
          "example": 0
        },
        "estimatedExpenseRevenue": {
          "type": "number",
          "example": 0
        },
        "estimatedProductCost": {
          "type": "number",
          "example": 0
        },
        "estimatedProductRevenue": {
          "type": "number",
          "example": 0
        },
        "estimatedTimeCost": {
          "type": "number",
          "example": 0
        },
        "estimatedTimeRevenue": {
          "type": "number",
          "example": 0
        },
        "billingMethod": {
          "type": "string",
          "example": "ActualRates"
        },
        "subBillingMethod": {
          "type": "string",
          "example": "ActualRates"
        },
        "resolveMinutes": {
          "type": "number",
          "example": 0
        },
        "resPlanMinutes": {
          "type": "number",
          "example": 0
        },
        "respondMinutes": {
          "type": "number",
          "example": 0
        },
        "isInSla": {
          "type": "boolean",
          "example": true
        },
        "hasChildTicket": {
          "type": "boolean",
          "example": false
        },
        "hasMergedChildTicketFlag": {
          "type": "boolean",
          "example": false
        },
        "billTime": {
          "type": "string",
          "example": "DoNotBill"
        },
        "billExpenses": {
          "type": "string",
          "example": "NoDefault"
        },
        "billProducts": {
          "type": "string",
          "example": "NoDefault"
        },
        "locationId": {
          "type": "number",
          "example": 2
        },
        "businessUnitId": {
          "type": "number",
          "example": 19
        },
        "mobileGuid": {
          "type": "string",
          "example": "5e9a16ac-9275-4a6a-ab94-485570474824"
        },
        "sla": {
          "type": "object",
          "properties": {
            "id": {
              "type": "number",
              "example": 6
            },
            "name": {
              "type": "string",
              "example": "Managed Services - 24x7"
            },
            "_info": {
              "type": "object",
              "properties": {
                "sla_href": {
                  "type": "string",
                  "example": "https://portal.choicecloud.com/v4_6_release/apis/3.0/service/SLAs/6"
                }
              }
            }
          }
        },
        "currency": {
          "type": "object",
          "properties": {
            "id": {
              "type": "number",
              "example": 7
            },
            "symbol": {
              "type": "string",
              "example": "$"
            },
            "currencyCode": {
              "type": "string",
              "example": "USD"
            },
            "decimalSeparator": {
              "type": "string",
              "example": "."
            },
            "numberOfDecimals": {
              "type": "number",
              "example": 2
            },
            "thousandsSeparator": {
              "type": "string",
              "example": ","
            },
            "negativeParenthesesFlag": {
              "type": "boolean",
              "example": true
            },
            "displaySymbolFlag": {
              "type": "boolean",
              "example": true
            },
            "currencyIdentifier": {
              "type": "string",
              "example": "USD"
            },
            "displayIdFlag": {
              "type": "boolean",
              "example": false
            },
            "rightAlign": {
              "type": "boolean",
              "example": false
            },
            "name": {
              "type": "string",
              "example": "US Dollars"
            },
            "_info": {
              "type": "object",
              "properties": {
                "currency_href": {
                  "type": "string",
                  "example": "https://portal.choicecloud.com/v4_6_release/apis/3.0/finance/currencies/7"
                }
              }
            }
          }
        },
        "_info": {
          "type": "object",
          "properties": {
            "lastUpdated": {
              "type": "string",
              "example": "2022-01-31T14:45:52Z"
            },
            "updatedBy": {
              "type": "string",
              "example": "labtech"
            },
            "activities_href": {
              "type": "string",
              "example": "https://portal.choicecloud.com/v4_6_release/apis/3.0/sales/activities?conditions=ticket/id=1290116"
            },
            "scheduleentries_href": {
              "type": "string",
              "example": "https://portal.choicecloud.com/v4_6_release/apis/3.0/schedule/entries?conditions=type/id=4 AND objectId=1290116"
            },
            "documents_href": {
              "type": "string",
              "example": "https://portal.choicecloud.com/v4_6_release/apis/3.0/system/documents?recordType=Ticket&recordId=1290116"
            },
            "configurations_href": {
              "type": "string",
              "example": "https://portal.choicecloud.com/v4_6_release/apis/3.0/service/tickets/1290116/configurations"
            },
            "tasks_href": {
              "type": "string",
              "example": "https://portal.choicecloud.com/v4_6_release/apis/3.0/service/tickets/1290116/tasks"
            },
            "notes_href": {
              "type": "string",
              "example": "https://portal.choicecloud.com/v4_6_release/apis/3.0/service/tickets/1290116/notes"
            },
            "products_href": {
              "type": "string",
              "example": "https://portal.choicecloud.com/v4_6_release/apis/3.0/procurement/products?conditions=chargeToType='Ticket' AND chargeToId=1290116"
            },
            "timeentries_href": {
              "type": "string",
              "example": "https://portal.choicecloud.com/v4_6_release/apis/3.0/time/entries?conditions=(chargeToType='ServiceTicket' OR chargeToType='ProjectTicket') AND chargeToId=1290116"
            },
            "expenseEntries_href": {
              "type": "string",
              "example": "https://portal.choicecloud.com/v4_6_release/apis/3.0/expense/entries?conditions=(chargeToType='ServiceTicket' OR chargeToType='ProjectTicket') AND chargeToId=1290116"
            }
          }
        },
        "customFields": {
          "type": "array",
          "items": {
            "type": "object",
            "properties": {
              "id": {
                "type": "number",
                "example": 37
              },
              "caption": {
                "type": "string",
                "example": "Noise Cleanup"
              },
              "type": {
                "type": "string",
                "example": "Checkbox"
              },
              "entryMethod": {
                "type": "string",
                "example": "EntryField"
              },
              "numberOfDecimals": {
                "type": "number",
                "example": 0
              }
            }
          }
        }
      }
    },
    "cwTicketNotes": {
      "type": "object",
      "properties": {
        "id": {
          "type": "number",
          "example": 2176217
        },
        "ticketId": {
          "type": "number",
          "example": 1290116
        },
        "text": {
          "type": "string",
          "example": "This is a test"
        },
        "detailDescriptionFlag": {
          "type": "boolean",
          "example": true
        },
        "internalAnalysisFlag": {
          "type": "boolean",
          "example": false
        },
        "resolutionFlag": {
          "type": "boolean",
          "example": false
        },
        "issueFlag": {
          "type": "boolean",
          "example": false
        },
        "member": {
          "type": "object",
          "properties": {
            "id": {
              "type": "number",
              "example": 337
            },
            "identifier": {
              "type": "string",
              "example": "labtech"
            },
            "name": {
              "type": "string",
              "example": "LabTech Software"
            },
            "_info": {
              "type": "object",
              "properties": {
                "member_href": {
                  "type": "string",
                  "example": "https://portal.choicecloud.com/v4_6_release/apis/3.0/system/members/337"
                },
                "image_href": {
                  "type": "string",
                  "example": "https://portal.choicecloud.com/v4_6_release/apis/3.0/system/members/337/image?lm=2021-11-05T16:37:00Z"
                }
              }
            }
          }
        },
        "dateCreated": {
          "type": "string",
          "example": "2022-01-31T14:45:52Z"
        },
        "createdBy": {
          "type": "string",
          "example": "labtech"
        },
        "internalFlag": {
          "type": "boolean",
          "example": true
        },
        "externalFlag": {
          "type": "boolean",
          "example": true
        },
        "_info": {
          "type": "object",
          "properties": {
            "lastUpdated": {
              "type": "string",
              "example": "2022-01-31T14:45:52Z"
            },
            "updatedBy": {
              "type": "string",
              "example": "labtech"
            }
          }
        }
      }
    },
    "workstations": {
      "type": "object",
      "properties": {
        "computerid": {
          "type": "number",
          "example": 1137
        },
        "clientID": {
          "type": "number",
          "example": 18
        },
        "name": {
          "type": "string",
          "example": "EVT1VM"
        },
        "Company_RecID": {
          "type": "number",
          "example": 343
        },
        "OS": {
          "type": "string",
          "example": "Microsoft Windows Server 2008 R2 Standard x64"
        },
        "NumProc": {
          "type": "number",
          "example": 1
        },
        "IsServer": {
          "type": "number",
          "example": 1
        },
        "sku": {
          "type": "string",
          "example": "MS - Windows Best Effort Server"
        }
      }
    },
    "patchRebootAudit": {
      "type": "object",
      "properties": {
        "ComputerID": {
          "type": "number",
          "example": 16094
        },
        "Client": {
          "type": "string",
          "example": "A.J. Manufacturing Company, Inc."
        },
        "Location": {
          "type": "string",
          "example": "PO - Workstations"
        },
        "Computer": {
          "type": "string",
          "example": "AJ-BEND"
        }
      }
    },
    "patchAudit": {
      "type": "object",
      "properties": {
        "HotfixID": {
          "type": "string",
          "example": "67c10bc1-98c1-4dd1-baec-ed9f40b6bce7"
        },
        "ComputerID": {
          "type": "number",
          "example": 15256
        },
        "Client": {
          "type": "string",
          "example": "CentriNet Corp"
        },
        "Location": {
          "type": "string",
          "example": "DFW - QTS"
        },
        "computer": {
          "type": "string",
          "example": "DAL-HV01"
        },
        "OS": {
          "type": "string",
          "example": "Windows Server 2016 x64"
        },
        "MAC": {
          "type": "string",
          "example": "64-31-50-51-0F-14"
        },
        "IPAddress": {
          "type": "string",
          "example": "10.100.90.165"
        },
        "DeviceCompliance": {
          "type": "number",
          "example": 16.67
        },
        "ApprovalPolicy": {
          "type": "string",
          "example": "Approve"
        },
        "PatchState": {
          "type": "string",
          "example": "Not Attempted"
        },
        "vPro": {
          "type": "number",
          "example": 0
        },
        "WOL": {
          "type": "number",
          "example": 0
        },
        "Connected": {
          "type": "number",
          "example": 0
        },
        "IdleTime": {
          "type": "number",
          "example": 883592
        },
        "Idle": {
          "type": "number",
          "example": 0
        },
        "DaytimePatching": {
          "type": "number",
          "example": 0
        },
        "PatchJobRunning": {
          "type": "number",
          "example": 0
        },
        "PendingReboot": {
          "type": "number",
          "example": 0
        },
        "LastPatchJobFailed": {
          "type": "number",
          "example": 0
        },
        "NoPatchInventory": {
          "type": "number",
          "example": 0
        },
        "WSUSEnabled": {
          "type": "number",
          "example": 0
        },
        "OutofDateWUA": {
          "type": "number",
          "example": 0
        },
        "MissingBaseline": {
          "type": "number",
          "example": 0
        },
        "Stage": {
          "type": "number",
          "example": 2
        },
        "PatchJobs": {
          "type": "number",
          "example": 0
        },
        "MaintenanceBegin": {
          "type": "string",
          "example": "2022-08-17T20:29:46.000Z"
        },
        "MaintenanceDuration": {
          "type": "number",
          "example": -1
        },
        "MaintenanceMode": {
          "type": "number",
          "example": -1
        }
      }
    },
    "activeDirUsers": {
      "type": "object",
      "properties": {
        "AccountName": {
          "type": "string",
          "example": "ACEPRES"
        },
        "AccountControls": {
          "type": "number",
          "example": 512
        },
        "LastLogon": {
          "type": "string",
          "example": "2022-02-14T17:09:06.000Z"
        },
        "FirstName": {
          "type": "string",
          "example": "ACEPRES"
        },
        "LastName": {},
        "Email": {
          "type": "string",
          "example": "jack.neil@hank.ai"
        },
        "DomainAdministrator": {
          "type": "number",
          "example": 0
        },
        "NTDomain": {
          "type": "string",
          "example": "CCACE01"
        },
        "InfrastructureServerID": {
          "type": "number",
          "example": 13928
        },
        "ServerName": {
          "type": "string",
          "example": "DFWACEDC01"
        },
        "ClientID": {
          "type": "number",
          "example": 67
        },
        "ExternalID": {
          "type": "number",
          "example": 17677
        }
      }
    },
    "spla": {
      "type": "object",
      "properties": {
        "name": {
          "type": "string",
          "example": "T4L-POS"
        },
        "clientname": {
          "type": "string",
          "example": "Tickets for Less"
        },
        "processors": {
          "type": "string",
          "example": "24"
        },
        "LastRun": {
          "type": "string",
          "example": "8/1/2022 1:31:05 AM"
        },
        "sqlversions": {
          "type": "string",
          "example": "MSSQLSERVER Standard Edition 14.0.1000.169;"
        }
      }
    },
    "badHealth": {
      "type": "object",
      "properties": {
        "FailedStandardId": {
          "type": "number",
          "example": 1
        },
        "StandardGuid": {
          "type": "string",
          "example": "16e5065c-d6e6-11e3-b785-6431502512ea"
        },
        "StandardName": {
          "type": "string",
          "example": "Server: Operating System"
        },
        "TargetType": {
          "type": "number",
          "example": 1
        },
        "TargetId": {
          "type": "number",
          "example": 1137
        },
        "DeviceName": {
          "type": "string",
          "example": "Trinity Bank NA / DATA CENTER - FW / EVT1VM"
        },
        "VendorId": {
          "type": "number",
          "example": 0
        },
        "ProductId": {
          "type": "number",
          "example": 0
        },
        "Priority": {
          "type": "number",
          "example": 5
        },
        "PossibilityGenerated": {
          "type": "number",
          "example": 0
        },
        "Ignored": {
          "type": "number",
          "example": 0
        },
        "DetectedDate": {
          "type": "string",
          "example": "2022-08-17T08:23:29.000Z"
        },
        "LastUpdate": {
          "type": "string",
          "example": "2022-08-17T08:23:29.000Z"
        },
        "FailedMessage": {
          "type": "string",
          "example": "EVT1VM has Microsoft Windows Server 2008 R2 Standard x64 (6.1) installed and does not meet the minimum Server 2008 R2 standard."
        }
      }
    }
  }
}